{
    "KPackageStructure": "KPackage/GenericQML",
    "KPlugin": {
        "Authors": [
            {
                "Email": "devin@kde.org",
                "Name": "Devin Lin",
                "Name[ar]": "ديفين لين",
                "Name[az]": "Devin Lin",
                "Name[ca@valencia]": "Devin Lin",
                "Name[ca]": "Devin Lin",
                "Name[cs]": "Devin Lin",
                "Name[de]": "Devin Lin",
                "Name[en_GB]": "Devin Lin",
                "Name[eo]": "Devin Lin",
                "Name[es]": "Devin Lin",
                "Name[eu]": "Devin Lin",
                "Name[fi]": "Devin Lin",
                "Name[fr]": "Devin Lin",
                "Name[gl]": "Devin Lin",
                "Name[hu]": "Devin Lin",
                "Name[ia]": "Devin Lin",
                "Name[is]": "Devin Lin",
                "Name[it]": "Devin Lin",
                "Name[ka]": "Devin Lin",
                "Name[ko]": "Devin Lin",
                "Name[nl]": "Devin Lin",
                "Name[nn]": "Devin Lin",
                "Name[pa]": "ਡੇਵਿਨ ਲਿਨ",
                "Name[pl]": "Devin Lin",
                "Name[pt]": "Devin Lin",
                "Name[pt_BR]": "Devin Lin",
                "Name[ru]": "Devin Lin",
                "Name[sk]": "Devin Lin",
                "Name[sl]": "Devin Lin",
                "Name[sv]": "Devin Lin",
                "Name[tr]": "Devin Lin",
                "Name[uk]": "Devin Lin",
                "Name[x-test]": "xxDevin Linxx",
                "Name[zh_CN]": "Devin Lin",
                "Name[zh_TW]": "Devin Lin"
            }
        ],
        "Description": "Finished initialstart module for Plasma Mobile",
        "Description[ca@valencia]": "Mòdul de començament inicial finalitzat per a Plasma Mobile",
        "Description[ca]": "Mòdul de començament inicial finalitzat per al Plasma Mobile",
        "Description[en_GB]": "Finished initial start module for Plasma Mobile",
        "Description[eo]": "Finita komenca startmodulo por Plasma Mobile",
        "Description[es]": "Módulo del primer inicio para Plasma Mobile terminado",
        "Description[eu]": "Bukatuta hasierako abio modulua Plasma Mugikorrerako",
        "Description[fi]": "Pika-asetusmoduuli Plasma Mobileen on valmis",
        "Description[fr]": "Exécution terminée du module « initialstart » pour Plasma Mobile",
        "Description[gl]": "Módulo de inicio de final para Plasma Mobile.",
        "Description[hu]": "A Plasma Mobile elsőindítás modulja végzett.",
        "Description[ia]": "Modulo initialstart terminate per Plasma Mobile",
        "Description[is]": "Finished initialstart-eining fyrir Plasma Mobile",
        "Description[it]": "Modulo di avvio iniziale completato per Plasma Mobile",
        "Description[ka]": "Plasma Mobile-ის საწყისი გაშვების მოდულის მომზადება დასრულდა",
        "Description[ko]": "Plasma 모바일의 완료된 첫 시작 모듈",
        "Description[nl]": "Initiële cellulaire startmodule voor Plasma Mobile beëindigd",
        "Description[pa]": "ਪਲਾਜ਼ਮਾ ਮੋਬਾਈਲ ਲਈ ਸ਼ੁਰੂਆਤੀ ਮੋਡੀਊਲ ਪੂਰਾ ਹੋਇਆ",
        "Description[pl]": "Zakończono człon początków w Przenośnej Plazmie",
        "Description[sk]": "Dokončený počiatočný spúšťací modul pre Plasma Mobile",
        "Description[sl]": "Končan modul začetnega celičnega zagona za Plasma Mobile",
        "Description[tr]": "Plasma Cep için başlangıç ayarları modülü ayarlandı",
        "Description[uk]": "Модуль завершення початкового запуску для мобільної Плазми",
        "Description[x-test]": "xxFinished initialstart module for Plasma Mobilexx",
        "Description[zh_CN]": "完成 Plasma Mobile 的模块初始化",
        "Description[zh_TW]": "Plasma 行動的「已完成」畫面初始設定模組",
        "Id": "org.kde.plasma.mobileinitialstart.finished",
        "License": "GPL-2.0+",
        "Name": "Finished",
        "Name[ar]": "انتهى",
        "Name[ca@valencia]": "Finalitzat",
        "Name[ca]": "Finalitzat",
        "Name[cs]": "Dokončeno",
        "Name[de]": "Abgeschlossen",
        "Name[en_GB]": "Finished",
        "Name[eo]": "Finita",
        "Name[es]": "Finalizado",
        "Name[eu]": "Bukatuta",
        "Name[fi]": "Valmis",
        "Name[fr]": "Terminé",
        "Name[gl]": "Final",
        "Name[hu]": "Befejezve",
        "Name[ia]": "Terminate",
        "Name[is]": "Lokið",
        "Name[it]": "Finito",
        "Name[ka]": "დასრულდა",
        "Name[ko]": "완료됨",
        "Name[nl]": "Beëindigd",
        "Name[nn]": "Fullført",
        "Name[pa]": "ਮੁਕੰਮਲ",
        "Name[pl]": "Zakończone",
        "Name[sk]": "Dokončené",
        "Name[sl]": "Končano",
        "Name[tr]": "Bitti",
        "Name[uk]": "Завершено",
        "Name[x-test]": "xxFinishedxx",
        "Name[zh_CN]": "完成",
        "Name[zh_TW]": "已完成",
        "ServiceTypes": [
            "KPackage/GenericQML"
        ],
        "Website": "https://kde.org"
    }
}
