{
    "Categories": "Qt;KDE;X-KDE-settings-system;",
    "KPlugin": {
        "Description": "Configure power management settings",
        "Description[ca@valencia]": "Configureu els paràmetres de gestió de l'energia",
        "Description[ca]": "Configuració dels paràmetres de gestió d'energia",
        "Description[cs]": "Konfigurace nastavení správy napájení",
        "Description[en_GB]": "Configure power management settings",
        "Description[eo]": "Meti agordojn pri potenc-administrado",
        "Description[es]": "Configurar las preferencias de la gestión de energía",
        "Description[eu]": "Konfiguratu energia kudeatzeko ezarpenak",
        "Description[fi]": "Aseta virranhallinta",
        "Description[fr]": "Configurer les paramètres de gestion de l'énergie",
        "Description[gl]": "Configurar a xestión de enerxía.",
        "Description[hu]": "Energiakezeléso beállítások módosítása",
        "Description[ia]": "Configura preferentias  de gestion de energia",
        "Description[is]": "Grunnstilla orkunotkun",
        "Description[it]": "Configura le impostazioni di gestione energetica",
        "Description[ka]": "ენერგიის მართვის პარამეტრების კონფიგურაცია",
        "Description[ko]": "전원 관리 설정",
        "Description[nl]": "Energie-instellingen configureren",
        "Description[nn]": "Set opp straumstyring",
        "Description[pa]": "ਊਰਜਾ ਇੰਤਜ਼ਾਮ ਸੈਟਿੰਗਾਂ ਦੀ ਸੰਰਚਨਾ",
        "Description[pl]": "Ustawienia zarządzania energią",
        "Description[pt_BR]": "Configurar as opções do gerenciamento de energia",
        "Description[sk]": "Konfigurácia nastavení správy napájania",
        "Description[sl]": "Konfiguriraj nastavitve upravljanja z energijo",
        "Description[tr]": "Güç yönetimi ayarlarını yapılandır",
        "Description[uk]": "Налаштовування керування живленням",
        "Description[x-test]": "xxConfigure power management settingsxx",
        "Description[zh_CN]": "配置电源管理设置。",
        "Description[zh_TW]": "設定電源管理",
        "FormFactors": [
            "handset",
            "tablet",
            "mediacenter"
        ],
        "Icon": "preferences-system-power-management",
        "Name": "Energy",
        "Name[ar]": "الطاقة",
        "Name[ca@valencia]": "Energia",
        "Name[ca]": "Energia",
        "Name[cs]": "Energie",
        "Name[en_GB]": "Energy",
        "Name[eo]": "Energio",
        "Name[es]": "Energía",
        "Name[eu]": "Energia",
        "Name[fi]": "Virta",
        "Name[fr]": "Énergie",
        "Name[gl]": "Enerxía",
        "Name[hu]": "Energia",
        "Name[ia]": "Energia",
        "Name[is]": "Orka",
        "Name[it]": "Energia",
        "Name[ka]": "ენერგია",
        "Name[ko]": "에너지",
        "Name[nl]": "Energie",
        "Name[nn]": "Straumstyring",
        "Name[pa]": "ਊਰਜਾ",
        "Name[pl]": "Energia",
        "Name[pt_BR]": "Energia",
        "Name[sk]": "Energia",
        "Name[sl]": "Energija",
        "Name[tr]": "Enerji",
        "Name[uk]": "Живлення",
        "Name[x-test]": "xxEnergyxx",
        "Name[zh_CN]": "电量",
        "Name[zh_TW]": "電源"
    },
    "X-KDE-Keywords": "video, monitor, graphics, timeout, sleep, lock, screenlocker, screensaver",
    "X-KDE-Keywords[ast]": "videu,monitor,gráficos,dormir,dormición,bloquiar,bloquéu,curiapantalles,bloquiador de pantalla",
    "X-KDE-Keywords[az]": "video, monitor, graphics, timeout, sleep, lock, screenlocker, screensaver,qrafiklər,boşdayanma,yuxu,kilid,ekran kilidləyici,ekran qoruyucu",
    "X-KDE-Keywords[ca@valencia]": "vídeo, monitor, gràfics, temps d'espera, adorm, bloqueja, bloqueig de la pantalla, estalvi de pantalla",
    "X-KDE-Keywords[ca]": "vídeo, monitor, gràfics, temps d'espera, adorm, bloqueja, bloqueig de la pantalla, estalvi de pantalla",
    "X-KDE-Keywords[cs]": "video, monitor, grafika, časový limit, spánek, zámek, zamčení obrazovky, spořič obrazovky",
    "X-KDE-Keywords[da]": "video, skærm, grafik, tidsudløb, slumre, lås, skærmlåsning, pauseskærm",
    "X-KDE-Keywords[de]": "Video,Monitor,Grafik,Zeitüberschreitung,Standby,Sperren, Bildschirmsperre,Bildschirmschoner",
    "X-KDE-Keywords[el]": "βίντεο, οθόνη, γραφικά, χρονικό όριο, ύπνωση, κλείδωμα, κλείδωμα οθόνης, προστασία οθόνης",
    "X-KDE-Keywords[en_GB]": "video, monitor, graphics, timeout, sleep, lock, screenlocker, screensaver",
    "X-KDE-Keywords[es]": "vídeo, monitor, gráficos, tiempo de espera, dormir, bloquear, bloqueo de pantalla, salvapantallas",
    "X-KDE-Keywords[et]": "video, monitor, graafika, aegumine, uni, lukustus, ekraanisäästja",
    "X-KDE-Keywords[eu]": "bideoa, monitorea, grafikoak, denbora-muga, egin lo, giltzatu, pantaila-giltzatzailea, pantaila-babeslea",
    "X-KDE-Keywords[fi]": "video, näyttö, grafiikka, aikakatkaisu, keskeytystila, lukitus, näyttölukko, näytönsäästäjä",
    "X-KDE-Keywords[fr]": "vidéo, écran, graphique, mise en veille, sommeil, verrouillage, verrouillage d'écran, écran de veille",
    "X-KDE-Keywords[gl]": "vídeo, monitor, gráficos, tempo límite, hibernar, bloquear, bloqueador de pantalla, salvapantallas",
    "X-KDE-Keywords[hu]": "videó, monitor, grafika, időkorlát, alvás, zárolás, képernyőzár, képernyővédő",
    "X-KDE-Keywords[ia]": "video, monitor, graphics, timeout, sleep, lock, screenlocker, screensaver",
    "X-KDE-Keywords[it]": "video, monitor, grafica, tempo massimo, attendi, blocca, bloccaschermo, salvaschermo",
    "X-KDE-Keywords[ko]": "video, monitor, graphics, timeout, sleep, lock, screenlocker, screensaver, 비디오, 모니터, 그래픽, 시간 제한, 절전, 대기, 잠금, 화면 보호기, 화면 잠금",
    "X-KDE-Keywords[lt]": "vaizdas, monitorius, vaizduoklis, grafika, laiko limitas, miegas, miegoti, užraktas, uzraktas, užrakinti, uzrakinti, ekrano užraktas, ekrano uzraktas, ekrano užsklanda, ekrano uzsklanda",
    "X-KDE-Keywords[nl]": "video, monitor, grafisch, tijdslimiet, onderbreken, vergrendelen, schermvergrendelaar, schermbeveiliging",
    "X-KDE-Keywords[nn]": "video, skjerm, grafikk, tidsavbrot, timeout, sove, lås, låsing, skjermlåsar, pauseskjerm, skjermsparar",
    "X-KDE-Keywords[pa]": "ਵੀਡੀਓ, ਮਾਨੀਟਰ, ਗਰਾਫਿਕਸ, ਟਾਈਮ ਆਉਟ, ਸਲੀਪ, ਲਾਕ, ਸਕਰੀਨ-ਲਾਕਰ, ਸਕਰੀਨ-ਸੇਵਰ",
    "X-KDE-Keywords[pl]": "video, monitor, grafika, timeout, uśpij, zablokuj, blokada ekranu, wygaszacz ekranu",
    "X-KDE-Keywords[pt]": "vídeo, monitor, gráfica, tempo-limite, suspender, bloquear, bloqueio de ecrã, protector de ecrã",
    "X-KDE-Keywords[pt_BR]": "vídeo, monitor, gráfico, tempo limite, suspender, bloquear, bloqueio de tela, protetor de tela",
    "X-KDE-Keywords[ro]": "video, monitor, grafică, expirare, somn, adormire, blocare, blocare ecran, protecție ecran",
    "X-KDE-Keywords[ru]": "video, monitor, graphics, timeout, sleep, lock, screenlocker, screensaver, видео, монитор, экран, графика, блокировка",
    "X-KDE-Keywords[sk]": "video, obrazovka, grafika, prestávka, spánok, zámok, zámok obrazovky, šetrič obrazovky",
    "X-KDE-Keywords[sl]": "video, zaslon, grafika, časovna omejitev, spanje, zaklep, zaklep zaslona, ohranjevalnik zaslona",
    "X-KDE-Keywords[sv]": "video, bildskärm, grafik, tidsgräns, viloläge, låsning, skärmlåsning, skärmsläckare",
    "X-KDE-Keywords[tr]": "video, monitör, grafikler, zaman aşımı, uyku, kilit, ekran kilitleyici, ekran koruyucu",
    "X-KDE-Keywords[uk]": "video, monitor, graphics, timeout, sleep, lock, screenlocker, screensaver, відео, монітор, графіка, час очікування, присипляння, блокування, збереження, екран",
    "X-KDE-Keywords[vi]": "video,monitor,graphics,timeout,sleep,lock,screenlocker,screensaver,phim,màn hình,đồ hoạ,tắt màn hình,ngủ,khoá,khoá màn hình,bảo vệ màn hình",
    "X-KDE-Keywords[x-test]": "xxvideoxx,xx monitorxx,xx graphicsxx,xx timeoutxx,xx sleepxx,xx lockxx,xx screenlockerxx,xx screensaverxx",
    "X-KDE-Keywords[zh_CN]": "video, monitor, graphics, timeout, sleep, lock, screenlocker, screensaver, 视频, 显示器, 监视器, 图形, 图像, 超时, 睡眠, 锁屏, 屏幕保护, 屏幕锁定, 屏保, 锁定",
    "X-KDE-Keywords[zh_TW]": "video, monitor, graphics, timeout, sleep, lock, screenlocker, screensaver, 影片, 顯示器, 圖形, 顯示卡, 逾時, 休眠, 鎖定, 螢幕鎖定, 螢幕保護程式",
    "X-KDE-System-Settings-Parent-Category": "system-administration",
    "X-KDE-Weight": 20
}
