{
    "Categories": "Qt;KDE;X-KDE-settings-system;",
    "KPlugin": {
        "Description": "Timezone, Date Display",
        "Description[ca@valencia]": "Zona horària, Mostra la data",
        "Description[ca]": "Zona horària, Mostra la data",
        "Description[cs]": "Zobrazení data a časového pásma",
        "Description[en_GB]": "Timezone, Date Display",
        "Description[eo]": "Horzono, Datmontrilo",
        "Description[es]": "Zona horaria, visor de la fecha",
        "Description[eu]": "Ordu-eremua, data azaltzea",
        "Description[fi]": "Aikavyöhyke, Päivämääränäyttö",
        "Description[fr]": "Affichage du fuseau horaire et de la date",
        "Description[gl]": "Fuso horario, visualización da data.",
        "Description[hu]": "Időzóna, dátummegjelenítés",
        "Description[ia]": "Fuso horari, Monstrator de Data",
        "Description[is]": "Tímabelti, birting dagsetninga",
        "Description[it]": "Fuso orario, visualizzazione della data",
        "Description[ka]": "დროის სარტყელი, თარიღის ჩვენება",
        "Description[ko]": "시간대, 날짜 표시",
        "Description[nl]": "Tijdzone, datumweergave",
        "Description[nn]": "Tidssone, datovising",
        "Description[pa]": "ਸਮਾਂ-ਖੇਤਰ, ਤਾਰੀਖ ਦਿੱਖ",
        "Description[pl]": "Strefa czasowa, wyświetlanie daty",
        "Description[pt_BR]": "Fuso horário, exibição de datas",
        "Description[sk]": "Zobrazenie časového pásma, dátumu",
        "Description[sl]": "Časovni pas, prikaz datuma",
        "Description[tr]": "Zaman Dilimi; Tarih Gösterimi",
        "Description[uk]": "Часовий пояс, показ дати",
        "Description[x-test]": "xxTimezone, Date Displayxx",
        "Description[zh_CN]": "时区、日期显示",
        "Description[zh_TW]": "時區、日期顯示",
        "FormFactors": [
            "handset",
            "tablet",
            "mediacenter"
        ],
        "Icon": "preferences-system-time",
        "Name": "Time and Date",
        "Name[ar]": "الوقت والتّاريخ",
        "Name[ast]": "Hora ya data",
        "Name[ca@valencia]": "Hora i data",
        "Name[ca]": "Hora i data",
        "Name[cs]": "Datum a čas",
        "Name[en_GB]": "Time and Date",
        "Name[eo]": "Tempo kaj Dato",
        "Name[es]": "Fecha y hora",
        "Name[eu]": "Ordua eta data",
        "Name[fi]": "Aika ja päiväys",
        "Name[fr]": "Date et heure",
        "Name[gl]": "Data e hora",
        "Name[hu]": "Dátum és idő",
        "Name[ia]": "Hora e data",
        "Name[is]": "Dagsetning og tími",
        "Name[it]": "Ora e data",
        "Name[ka]": "თარიღი და დრო",
        "Name[ko]": "날짜와 시간",
        "Name[nl]": "Tijd en datum",
        "Name[nn]": "Dato og klokkeslett",
        "Name[pa]": "ਸਮਾਂ ਤੇ ਤਾਰੀਖ",
        "Name[pl]": "Czas i data",
        "Name[pt_BR]": "Data e hora",
        "Name[sk]": "Čas a dátum",
        "Name[sl]": "Čas in datum",
        "Name[tr]": "Tarih ve Saat",
        "Name[uk]": "Час і дата",
        "Name[x-test]": "xxTime and Datexx",
        "Name[zh_CN]": "时间和日期",
        "Name[zh_TW]": "時間與日期"
    },
    "X-KDE-Keywords": "theme, look, feel",
    "X-KDE-Keywords[ast]": "estilu, aspeutu",
    "X-KDE-Keywords[az]": "theme, look, feel,mövzu,xarici görünüş,hissetmə",
    "X-KDE-Keywords[ca@valencia]": "tema, aspecte, comportament",
    "X-KDE-Keywords[ca]": "tema, aspecte, comportament",
    "X-KDE-Keywords[cs]": "motiv,vzhled,chování",
    "X-KDE-Keywords[da]": "tema, udseende, fremtoning",
    "X-KDE-Keywords[de]": "Design,Erscheinungsbild",
    "X-KDE-Keywords[el]": "θέμα, όψη, αίσθηση",
    "X-KDE-Keywords[en_GB]": "theme, look, feel",
    "X-KDE-Keywords[es]": "tema, aspecto, visual",
    "X-KDE-Keywords[et]": "teema, välimus",
    "X-KDE-Keywords[eu]": "gaia,itxura,izaera",
    "X-KDE-Keywords[fi]": "teema, ulkoasu, tuntuma",
    "X-KDE-Keywords[fr]": "thème, apparence, comportement, graphique",
    "X-KDE-Keywords[gl]": "tema, aparencia, estilo, comportamento",
    "X-KDE-Keywords[hu]": "téma, kinézet, megjelenés",
    "X-KDE-Keywords[ia]": "thema, semblantia, apparentia",
    "X-KDE-Keywords[it]": "tema, aspetto",
    "X-KDE-Keywords[ko]": "theme, look, feel, 테마, 모습과 느낌, 외형, 외관",
    "X-KDE-Keywords[lt]": "apipavidalinimas, išvaizda, isvaizda, turinys",
    "X-KDE-Keywords[nl]": "thema, uiterlijk, gedrag",
    "X-KDE-Keywords[nn]": "tema, utsjånad, åtferd",
    "X-KDE-Keywords[pa]": "ਥੀਮ, ਦਿੱਖ, ਰਵੱਈਆ",
    "X-KDE-Keywords[pl]": "wystrój, wygląd, odczucia, wrażenia",
    "X-KDE-Keywords[pt]": "tema, aparência, comportamento",
    "X-KDE-Keywords[pt_BR]": "tema, visual, aparência",
    "X-KDE-Keywords[ro]": "tematică, temă, aspect, comportament",
    "X-KDE-Keywords[ru]": "theme,look,feel,тема,оформление,внешний вид,стиль",
    "X-KDE-Keywords[sk]": "téma, vzhľad, nastavenie",
    "X-KDE-Keywords[sl]": "tema, videz, občutek",
    "X-KDE-Keywords[sv]": "tema, utseende, känsla",
    "X-KDE-Keywords[ta]": "theme, look, feel, தோற்றம், தோற்றத்திட்டம், பார்வை, காட்சி, உணர்வு",
    "X-KDE-Keywords[tr]": "tema, bak, hisset",
    "X-KDE-Keywords[uk]": "theme,look,feel,тема,вигляд,поведінка",
    "X-KDE-Keywords[vi]": "theme,look,feel,chủ đề,nhìn,cảm",
    "X-KDE-Keywords[x-test]": "xxthemexx,xx lookxx,xx feelxx",
    "X-KDE-Keywords[zh_CN]": "theme, look, feel, 主题, 外观, 视觉效果, 显示效果",
    "X-KDE-Keywords[zh_TW]": "theme, look, feel, 主題, 外觀, 感覺",
    "X-KDE-System-Settings-Parent-Category": "regionalsettings",
    "X-KDE-Weight": 70
}
